\relax 
\FN@pp@footnotehinttrue 
\@writefile{toc}{\contentsline {chapter}{\numberline {1}Introduction}{1}{chapter.1}}
\@writefile{lof}{\addvspace {10\p@ }}
\@writefile{lot}{\addvspace {10\p@ }}
\FN@pp@footnote@aux{1}{1}
\@writefile{toc}{\contentsline {section}{\numberline {1.1}Aims and Objectives}{1}{section.1.1}}
\@writefile{toc}{\contentsline {section}{\numberline {1.2}Methodology}{2}{section.1.2}}
\@writefile{toc}{\contentsline {section}{\numberline {1.3}Research Contribution}{2}{section.1.3}}
\@writefile{toc}{\contentsline {section}{\numberline {1.4}Thesis Outline}{2}{section.1.4}}
\FN@pp@footnotehinttrue 
\@setckpt{1_introduction/introduction}{
\setcounter{page}{3}
\setcounter{equation}{0}
\setcounter{enumi}{0}
\setcounter{enumii}{0}
\setcounter{enumiii}{0}
\setcounter{enumiv}{0}
\setcounter{footnote}{0}
\setcounter{mpfootnote}{0}
\setcounter{part}{0}
\setcounter{chapter}{1}
\setcounter{section}{4}
\setcounter{subsection}{0}
\setcounter{subsubsection}{0}
\setcounter{paragraph}{0}
\setcounter{subparagraph}{0}
\setcounter{figure}{0}
\setcounter{table}{0}
\setcounter{ContinuedFloat}{0}
\setcounter{pp@next@reset}{2}
\setcounter{@fnserial}{1}
\setcounter{NAT@ctr}{0}
\setcounter{Item}{0}
\setcounter{Hfootnote}{1}
\setcounter{bookmark@seq@number}{7}
\setcounter{parentequation}{0}
\setcounter{lstnumber}{1}
\setcounter{section@level}{1}
\setcounter{lstlisting}{0}
}
